[
  {
    "編號": "1",
    "轄區分局": "第六分局",
    "路口名稱": "(西屯區)文心路與臺灣大道口",
    "A1": "0",
    "A2件數": "9",
    "A2受傷": "13",
    "A3": "6",
    "總件數": "15",
    "發生時間": "12-14",
    "主要肇因": "變換車道或方向不當"
  },
  {
    "編號": "2",
    "轄區分局": "第六分局",
    "路口名稱": "(西屯區)環中路與西屯路口",
    "A1": "0",
    "A2件數": "7",
    "A2受傷": "7",
    "A3": "3",
    "總件數": "10",
    "發生時間": "10-12",
    "主要肇因": "未依規定讓車"
  },
  {
    "編號": "3",
    "轄區分局": "第四分局",
    "路口名稱": "(南屯區)五權西路與向上路口",
    "A1": "0",
    "A2件數": "2",
    "A2受傷": "3",
    "A3": "8",
    "總件數": "10",
    "發生時間": "16-18",
    "主要肇因": "未保持行車安全距離"
  },
  {
    "編號": "4",
    "轄區分局": "第四分局",
    "路口名稱": "(南屯區)環中路與五權西路口",
    "A1": "0",
    "A2件數": "3",
    "A2受傷": "4",
    "A3": "6",
    "總件數": "9",
    "發生時間": "16-18",
    "主要肇因": "未注意車前狀態"
  },
  {
    "編號": "5",
    "轄區分局": "第六分局",
    "路口名稱": "(西屯區)中平路與黎明路口",
    "A1": "0",
    "A2件數": "2",
    "A2受傷": "3",
    "A3": "7",
    "總件數": "9",
    "發生時間": "08-10",
    "主要肇因": "未保持行車安全間隔"
  },
  {
    "編號": "6",
    "轄區分局": "第六分局",
    "路口名稱": "(西屯區)環中路與廣福路口",
    "A1": "0",
    "A2件數": "8",
    "A2受傷": "9",
    "A3": "1",
    "總件數": "9",
    "發生時間": "08-10",
    "主要肇因": "未依規定讓車"
  },
  {
    "編號": "7",
    "轄區分局": "第六分局",
    "路口名稱": "(西屯區)黎明路與經貿路口",
    "A1": "0",
    "A2件數": "7",
    "A2受傷": "10",
    "A3": "2",
    "總件數": "9",
    "發生時間": "20-22",
    "主要肇因": "未依規定讓車"
  },
  {
    "編號": "8",
    "轄區分局": "第五分局",
    "路口名稱": "(北屯區)崇德路與文心路口",
    "A1": "0",
    "A2件數": "7",
    "A2受傷": "9",
    "A3": "2",
    "總件數": "9",
    "發生時間": "10-12",
    "主要肇因": "違反特定標誌(線)禁制"
  },
  {
    "編號": "9",
    "轄區分局": "第二分局",
    "路口名稱": "(北區)三民路與崇德路口",
    "A1": "0",
    "A2件數": "7",
    "A2受傷": "9",
    "A3": "2",
    "總件數": "9",
    "發生時間": "08-10",
    "主要肇因": "違反特定標誌(線)禁制"
  },
  {
    "編號": "10",
    "轄區分局": "第五分局",
    "路口名稱": "(北屯區)太原路與環中東路口",
    "A1": "0",
    "A2件數": "4",
    "A2受傷": "4",
    "A3": "4",
    "總件數": "8",
    "發生時間": "08-10",
    "主要肇因": "變換車道或方向不當"
  }
]