[
  {
    "編號": "1",
    "轄區分局": "第四分局",
    "路口名稱": "(南屯區)環中路與五權西路口",
    "A1": "0",
    "A2件數": "6",
    "A2受傷": "8",
    "A3": "25",
    "總件數": "31",
    "發生時間": "10-12",
    "主要肇因": "變換車道或方向不當"
  },
  {
    "編號": "2",
    "轄區分局": "第六分局",
    "路口名稱": "(西屯區)文心路與臺灣大道口",
    "A1": "0",
    "A2件數": "11",
    "A2受傷": "17",
    "A3": "5",
    "總件數": "16",
    "發生時間": "12-14",
    "主要肇因": "變換車道或方向不當"
  },
  {
    "編號": "3",
    "轄區分局": "第二分局",
    "路口名稱": "(北區)三民路與崇德路口",
    "A1": "0",
    "A2件數": "9",
    "A2受傷": "12",
    "A3": "7",
    "總件數": "16",
    "發生時間": "08-10",
    "主要肇因": "違反特定標誌(線)禁制"
  },
  {
    "編號": "4",
    "轄區分局": "第六分局",
    "路口名稱": "(西屯區)環中路與中清聯絡道口",
    "A1": "0",
    "A2件數": "6",
    "A2受傷": "8",
    "A3": "9",
    "總件數": "15",
    "發生時間": "14-16",
    "主要肇因": "未注意車前狀態"
  },
  {
    "編號": "5",
    "轄區分局": "第六分局",
    "路口名稱": "(西屯區)西屯路與環中路口",
    "A1": "0",
    "A2件數": "4",
    "A2受傷": "7",
    "A3": "10",
    "總件數": "14",
    "發生時間": "18-20",
    "主要肇因": "未注意車前狀態"
  },
  {
    "編號": "6",
    "轄區分局": "第六分局",
    "路口名稱": "(西屯區)臺灣大道與河南路口",
    "A1": "0",
    "A2件數": "3",
    "A2受傷": "3",
    "A3": "10",
    "總件數": "13",
    "發生時間": "14-16",
    "主要肇因": "未注意車前狀態"
  },
  {
    "編號": "7",
    "轄區分局": "第六分局",
    "路口名稱": "(西屯區)市政路與環中路口",
    "A1": "0",
    "A2件數": "2",
    "A2受傷": "2",
    "A3": "10",
    "總件數": "12",
    "發生時間": "06-08",
    "主要肇因": "未注意車前狀態"
  },
  {
    "編號": "8",
    "轄區分局": "第三分局",
    "路口名稱": "(南區)東興路與建國北路口",
    "A1": "0",
    "A2件數": "9",
    "A2受傷": "10",
    "A3": "2",
    "總件數": "11",
    "發生時間": "16-18",
    "主要肇因": "未依規定讓車"
  },
  {
    "編號": "9",
    "轄區分局": "第六分局",
    "路口名稱": "(西屯區)臺灣大道與安和路口",
    "A1": "0",
    "A2件數": "3",
    "A2受傷": "3",
    "A3": "8",
    "總件數": "11",
    "發生時間": "12-14",
    "主要肇因": "未注意車前狀態"
  },
  {
    "編號": "10",
    "轄區分局": "第三分局",
    "路口名稱": "(南區)建國北路與文心南路口",
    "A1": "0",
    "A2件數": "5",
    "A2受傷": "6",
    "A3": "5",
    "總件數": "10",
    "發生時間": "18-20",
    "主要肇因": "未注意車前狀態"
  }
]